<svg xmlns="http://www.w3.org/2000/svg" width="42" height="49" viewBox="0 0 42 49">
    <g fill="none" fill-rule="evenodd">
        <g>
            <g>
                <g fill="#00E0CC" fill-rule="nonzero">
                    <path d="M21.987 48.035c0 .532-.439.965-.978.965-.538 0-.977-.433-.977-.965 0-.531.439-.964.977-.964.539 0 .978.433.978.964zm-21.499 0v-1.22c0-6.43 4.417-9.938 6.351-11.083 2.627-1.554 5.448-2.728 8.398-3.5v-1.553c-.492-.43-.941-.917-1.339-1.46-1.17-1.6-2.125-3.335-2.844-5.167-.659-.089-1.261-.503-1.57-1.15-.296-.617-2.344-4.359-2.658-5.025-.795-1.688.244-3.356 1.562-3.892.22-.09.446-.156.675-.194-.213-.862-.321-1.749-.321-2.65C8.742 4.998 13.802 0 20.023 0c1.093 0 2.129.413 2.915 1.163.009.008.022.008.03 0C23.755.413 24.791 0 25.884 0c4.228 0 7.667 3.397 7.667 7.572v1.756c0 1.513-.21 3.002-.625 4.445.234.038.468.098.69.197 1.622.726 2.256 2.518 1.563 3.893-.331.657-2.362 4.407-2.657 5.025-.31.647-.912 1.06-1.57 1.15-.72 1.836-1.676 3.575-2.849 5.179-.398.544-.848 1.032-1.34 1.461v1.554c2.95.772 5.771 1.946 8.398 3.5 1.934 1.145 6.35 4.652 6.35 11.083v1.22c0 .533-.437.965-.976.965H25.406h-.002c-.56 0-1.012-.468-.974-1.03.034-.512.488-.9 1.008-.9h14.12c0-4.072-2.07-7.71-5.402-9.682-2.353-1.393-4.873-2.463-7.505-3.188-.527 2.606-2.86 4.576-5.651 4.576s-5.124-1.97-5.651-4.576c-2.632.725-5.152 1.795-7.505 3.188-3.332 1.971-5.402 5.498-5.402 9.683h14.172c.561 0 1.013.47.974 1.031-.035.512-.49.898-1.009.898H1.465c-.54 0-.977-.432-.977-.965zm10.21-36.746c.091-.105 1.439-1.74 3.758-1.74 1.158 0 2.269.398 3.149 1.108.81.654 1.843 1.014 2.907 1.014 2.517 0 4.534-2 4.59-4.552.012-.524.446-.943.977-.943.53 0 .965.419.977.943.028 1.232.699 2.3 1.752 2.787 1.035.48 1.902 1.206 2.537 2.094.168-.877.253-1.77.253-2.671V7.572c0-3.112-2.563-5.643-5.714-5.643-.585 0-1.138.22-1.559.622-.769.733-1.974.733-2.743 0-.42-.401-.974-.622-1.559-.622-5.143 0-9.373 4.08-9.324 9.36zM24.81 31.963c-2.312 1.078-4.984 1.203-7.618 0v1.122c0 2.074 1.709 3.761 3.809 3.761s3.81-1.687 3.81-3.761v-1.122zm1.71-3.876c1.212-1.657 2.172-3.471 2.853-5.393.12-.338.573-.848 1.342-.55.362-.762 2.403-4.488 2.699-5.105.225-.47-.048-1.083-.56-1.293-.289-.119-.609-.098-.89.044-.606.306-1.356-.055-1.434-.717-.175-1.502-1.161-2.777-2.55-3.42-.703-.325-1.302-.802-1.769-1.386-.293.522-.675.992-1.094 1.438-1.854 1.973-5.73 2.85-8.747.447-1.177-.938-2.928-.882-4.008.2-.588.589-.933 1.383-.933 2.195v.38c.003.709-.76 1.181-1.415.862-.272-.132-.582-.138-.861-.028-.443.173-.821.74-.56 1.292.293.62 2.379 4.401 2.688 5.092.86-.296 1.264.31 1.353.562.681 1.918 1.64 3.729 2.85 5.383 1.3 1.778 3.31 2.798 5.517 2.798 2.206 0 4.218-1.02 5.52-2.8z" transform="translate(-145 -966) translate(145 966)"/>
                </g>
                <path fill="#1F6FE5" d="M42 5.787V.965C42 .432 41.563 0 41.023 0H36.14c-.54 0-.977.432-.977.965 0 .532.437.964.977.964h3.907v3.858c0 .533.437.965.976.965.54 0 .977-.432.977-.965zM42 32.12v-4.823c0-.532-.437-.964-.977-.964s-.976.432-.976.964v3.859H36.14c-.54 0-.977.431-.977.964 0 .533.437.965.977.965h4.883c.54 0 .977-.432.977-.965zM1.953 5.787V1.93H5.86c.54 0 .977-.432.977-.964C6.837.432 6.4 0 5.86 0H.977C.437 0 0 .432 0 .965v4.822c0 .533.437.965.977.965s.976-.432.976-.965zM6.837 32.12c0-.533-.437-.964-.977-.964H1.953v-3.859c0-.532-.437-.964-.976-.964-.54 0-.977.432-.977.964v4.823c0 .533.437.965.977.965H5.86c.54 0 .977-.432.977-.965z" transform="translate(-145 -966) translate(145 966)"/>
            </g>
        </g>
    </g>
</svg>
