<?xml version="1.0" encoding="utf-8"?>
<svg xmlns="http://www.w3.org/2000/svg" xmlns:xlink="http://www.w3.org/1999/xlink" style="margin: auto; background: none; display: block; shape-rendering: auto;" width="100px" height="100px" viewBox="0 0 100 100" preserveAspectRatio="xMidYMid">
  <rect x="33" y="33" width="10" height="10" fill="#00e0cc">
    <animate attributeName="fill" values="#00B1FF;#00e0cc;#00e0cc" keyTimes="0;0.125;1" dur="1s" repeatCount="indefinite" begin="0s" calcMode="discrete"></animate>
  </rect>
  <rect x="45" y="33" width="10" height="10" fill="#00e0cc">
    <animate attributeName="fill" values="#00B1FF;#00e0cc;#00e0cc" keyTimes="0;0.125;1" dur="1s" repeatCount="indefinite" begin="0.125s" calcMode="discrete"></animate>
  </rect>
  <rect x="57" y="33" width="10" height="10" fill="#00e0cc">
    <animate attributeName="fill" values="#00B1FF;#00e0cc;#00e0cc" keyTimes="0;0.125;1" dur="1s" repeatCount="indefinite" begin="0.25s" calcMode="discrete"></animate>
  </rect>
  <rect x="33" y="45" width="10" height="10" fill="#00e0cc">
    <animate attributeName="fill" values="#00B1FF;#00e0cc;#00e0cc" keyTimes="0;0.125;1" dur="1s" repeatCount="indefinite" begin="0.875s" calcMode="discrete"></animate>
  </rect>
  <rect x="57" y="45" width="10" height="10" fill="#00e0cc">
    <animate attributeName="fill" values="#00B1FF;#00e0cc;#00e0cc" keyTimes="0;0.125;1" dur="1s" repeatCount="indefinite" begin="0.375s" calcMode="discrete"></animate>
  </rect>
  <rect x="33" y="57" width="10" height="10" fill="#00e0cc">
    <animate attributeName="fill" values="#00B1FF;#00e0cc;#00e0cc" keyTimes="0;0.125;1" dur="1s" repeatCount="indefinite" begin="0.75s" calcMode="discrete"></animate>
  </rect>
  <rect x="45" y="57" width="10" height="10" fill="#00e0cc">
    <animate attributeName="fill" values="#00B1FF;#00e0cc;#00e0cc" keyTimes="0;0.125;1" dur="1s" repeatCount="indefinite" begin="0.625s" calcMode="discrete"></animate>
  </rect>
  <rect x="57" y="57" width="10" height="10" fill="#00e0cc">
    <animate attributeName="fill" values="#00B1FF;#00e0cc;#00e0cc" keyTimes="0;0.125;1" dur="1s" repeatCount="indefinite" begin="0.5s" calcMode="discrete"></animate>
  </rect>
</svg>