// Jest Snapshot v1, https://goo.gl/fbAQLP

exports[`should match snapshot 1`] = `
<div
  className="vote-form"
>
  <div
    className="vote-form__progress-bar"
  >
    <div
      className="vote-form__progress-bar__label"
    >
      <span>
        Connect your Identity to start voting
      </span>
    </div>
    <div
      className="vote-form-progress-bar progress"
    >
      <div
        aria-valuemax={0}
        aria-valuemin={0}
        aria-valuenow={0}
        className="progress-bar bg-primary"
        role="progressbar"
        style={
          Object {
            "width": "NaN%",
          }
        }
      />
    </div>
  </div>
  <div
    className="asset-list asset-list--empty vote-form-asset-list"
  >
    List is empty
  </div>
  <div
    className="vote-form__actions"
  >
    <button
      className="vote-form__submit-button btn btn-secondary"
      disabled={true}
      onClick={[Function]}
      type="button"
    >
      Vote
    </button>
    <div
      className="vote-form__footer"
    />
  </div>
</div>
`;
